…
## Daily Activity Pattern

### What is mean total number of steps taken per day?

```r
library(dplyr)
gdata <- group_by(maindata, date)
dailymeans<- summarise(gdata, mean=mean(steps, na.rm = TRUE))
dailymeans
```

```
## # A tibble: 61 x 2
##    date          mean
##    <date>       <dbl>
##  1 2012-10-01 NaN    
##  2 2012-10-02   0.438
##  3 2012-10-03  39.4  
##  4 2012-10-04  42.1  
##  5 2012-10-05  46.2  
##  6 2012-10-06  53.5  
##  7 2012-10-07  38.2  
##  8 2012-10-08 NaN    
##  9 2012-10-09  44.5  
## 10 2012-10-10  34.4  
## # ... with 51 more rows
```

### Median number of steps taken each day

```r
dailymedians<- summarise(gdata, mean=median(steps, na.rm = TRUE))
dailymedians
```

```
## # A tibble: 61 x 2
##    date        mean
##    <date>     <dbl>
##  1 2012-10-01    NA
##  2 2012-10-02     0
##  3 2012-10-03     0
##  4 2012-10-04     0
##  5 2012-10-05     0
##  6 2012-10-06     0
##  7 2012-10-07     0
##  8 2012-10-08    NA
##  9 2012-10-09     0
## 10 2012-10-10     0
## # ... with 51 more rows
```

### Total number of steps taken per day

```r
dailytotals <- summarise(gdata, totals=sum(steps, na.rm = TRUE))
dailytotals
```

```
## # A tibble: 61 x 2
##    date       totals
##    <date>      <int>
##  1 2012-10-01      0
##  2 2012-10-02    126
##  3 2012-10-03  11352
##  4 2012-10-04  12116
##  5 2012-10-05  13294
##  6 2012-10-06  15420
##  7 2012-10-07  11015
##  8 2012-10-08      0
##  9 2012-10-09  12811
## 10 2012-10-10   9900
## # ... with 51 more rows
```
…
### Time series plot of the 5 minutes interval


```r
library(dplyr)
library(ggplot2)
gidata <- group_by(maindata, interval)
intervalmeans <- summarize(gidata, intmeans=mean(steps, na.rm = TRUE))
intervalmeans
```

```
## # A tibble: 288 x 2
##    interval intmeans
##       <int>    <dbl>
##  1        0   1.72  
##  2        5   0.340 
##  3       10   0.132 
##  4       15   0.151 
##  5       20   0.0755
##  6       25   2.09  
##  7       30   0.528 
##  8       35   0.868 
##  9       40   0     
## 10       45   1.47  
## # ... with 278 more rows
```
…
