Reproducible Research: Peer Assessment 1
…
## The following objects are masked from 'package:stats':
## 
##     filter, lag

## The following objects are masked from 'package:base':
## 
##     intersect, setdiff, setequal, union

gdata <- group_by(maindata, date)
dailymeans<- summarise(gdata, mean=mean(steps, na.rm = TRUE))
dailymeans

## # A tibble: 61 x 2
##    date          mean
##    <fct>        <dbl>
##  1 2012-10-01 NaN    
##  2 2012-10-02   0.438
##  3 2012-10-03  39.4  
##  4 2012-10-04  42.1  
##  5 2012-10-05  46.2  
##  6 2012-10-06  53.5  
##  7 2012-10-07  38.2  
##  8 2012-10-08 NaN    
##  9 2012-10-09  44.5  
## 10 2012-10-10  34.4  
## # ... with 51 more rows

Histogram of the total number of steps taken each day

dailytotals <- summarise(gdata, totals=sum(steps, na.rm = TRUE))
dailytotals

## # A tibble: 61 x 2
##    date       totals
##    <fct>       <int>
##  1 2012-10-01      0
##  2 2012-10-02    126
##  3 2012-10-03  11352
##  4 2012-10-04  12116
##  5 2012-10-05  13294
##  6 2012-10-06  15420
##  7 2012-10-07  11015
##  8 2012-10-08      0
##  9 2012-10-09  12811
## 10 2012-10-10   9900
## # ... with 51 more rows
…
